{"frames": [

{
	"filename": "ball.png",
	"frame": {"x":90,"y":14,"w":15,"h":15},
	"rotated": false,
	"trimmed": false,
	"spriteSourceSize": {"x":0,"y":0,"w":15,"h":15},
	"sourceSize": {"w":15,"h":15}
},
{
	"filename": "bat.png",
	"frame": {"x":155,"y":14,"w":80,"h":18},
	"rotated": false,
	"trimmed": false,
	"spriteSourceSize": {"x":0,"y":0,"w":80,"h":18},
	"sourceSize": {"w":80,"h":18}
},
{
	"filename": "bat_mini.png",
	"frame": {"x":105,"y":14,"w":50,"h":18},
	"rotated": false,
	"trimmed": false,
	"spriteSourceSize": {"x":0,"y":0,"w":50,"h":18},
	"sourceSize": {"w":50,"h":18}
},
{
	"filename": "brick_1_0.png",
	"frame": {"x":0,"y":59,"w":60,"h":27},
	"rotated": false,
	"trimmed": false,
	"spriteSourceSize": {"x":0,"y":0,"w":60,"h":27},
	"sourceSize": {"w":60,"h":27}
},
{
	"filename": "brick_1_1.png",
	"frame": {"x":175,"y":0,"w":30,"h":14},
	"rotated": false,
	"trimmed": false,
	"spriteSourceSize": {"x":0,"y":0,"w":30,"h":14},
	"sourceSize": {"w":30,"h":14}
},
{
	"filename": "brick_1_2.png",
	"frame": {"x":135,"y":0,"w":20,"h":9},
	"rotated": false,
	"trimmed": false,
	"spriteSourceSize": {"x":0,"y":0,"w":20,"h":9},
	"sourceSize": {"w":20,"h":9}
},
{
	"filename": "brick_1_3.png",
	"frame": {"x":35,"y":0,"w":10,"h":5},
	"rotated": false,
	"trimmed": false,
	"spriteSourceSize": {"x":0,"y":0,"w":10,"h":5},
	"sourceSize": {"w":10,"h":5}
},
{
	"filename": "brick_1_4.png",
	"frame": {"x":10,"y":0,"w":5,"h":3},
	"rotated": false,
	"trimmed": false,
	"spriteSourceSize": {"x":0,"y":0,"w":5,"h":3},
	"sourceSize": {"w":5,"h":3}
},
{
	"filename": "brick_2_0.png",
	"frame": {"x":60,"y":59,"w":60,"h":27},
	"rotated": false,
	"trimmed": false,
	"spriteSourceSize": {"x":0,"y":0,"w":60,"h":27},
	"sourceSize": {"w":60,"h":27}
},
{
	"filename": "brick_2_1.png",
	"frame": {"x":205,"y":0,"w":30,"h":14},
	"rotated": false,
	"trimmed": false,
	"spriteSourceSize": {"x":0,"y":0,"w":30,"h":14},
	"sourceSize": {"w":30,"h":14}
},
{
	"filename": "brick_2_2.png",
	"frame": {"x":115,"y":0,"w":20,"h":9},
	"rotated": false,
	"trimmed": false,
	"spriteSourceSize": {"x":0,"y":0,"w":20,"h":9},
	"sourceSize": {"w":20,"h":9}
},
{
	"filename": "brick_2_3.png",
	"frame": {"x":25,"y":0,"w":10,"h":5},
	"rotated": false,
	"trimmed": false,
	"spriteSourceSize": {"x":0,"y":0,"w":10,"h":5},
	"sourceSize": {"w":10,"h":5}
},
{
	"filename": "brick_2_4.png",
	"frame": {"x":20,"y":0,"w":5,"h":3},
	"rotated": false,
	"trimmed": false,
	"spriteSourceSize": {"x":0,"y":0,"w":5,"h":3},
	"sourceSize": {"w":5,"h":3}
},
{
	"filename": "brick_3_0.png",
	"frame": {"x":25,"y":32,"w":60,"h":27},
	"rotated": false,
	"trimmed": false,
	"spriteSourceSize": {"x":0,"y":0,"w":60,"h":27},
	"sourceSize": {"w":60,"h":27}
},
{
	"filename": "brick_3_1.png",
	"frame": {"x":30,"y":14,"w":30,"h":14},
	"rotated": false,
	"trimmed": false,
	"spriteSourceSize": {"x":0,"y":0,"w":30,"h":14},
	"sourceSize": {"w":30,"h":14}
},
{
	"filename": "brick_3_2.png",
	"frame": {"x":95,"y":0,"w":20,"h":9},
	"rotated": false,
	"trimmed": false,
	"spriteSourceSize": {"x":0,"y":0,"w":20,"h":9},
	"sourceSize": {"w":20,"h":9}
},
{
	"filename": "brick_3_3.png",
	"frame": {"x":45,"y":0,"w":10,"h":5},
	"rotated": false,
	"trimmed": false,
	"spriteSourceSize": {"x":0,"y":0,"w":10,"h":5},
	"sourceSize": {"w":10,"h":5}
},
{
	"filename": "brick_3_4.png",
	"frame": {"x":0,"y":0,"w":5,"h":3},
	"rotated": false,
	"trimmed": false,
	"spriteSourceSize": {"x":0,"y":0,"w":5,"h":3},
	"sourceSize": {"w":5,"h":3}
},
{
	"filename": "brick_4_0.png",
	"frame": {"x":85,"y":32,"w":60,"h":27},
	"rotated": false,
	"trimmed": false,
	"spriteSourceSize": {"x":0,"y":0,"w":60,"h":27},
	"sourceSize": {"w":60,"h":27}
},
{
	"filename": "brick_4_1.png",
	"frame": {"x":60,"y":14,"w":30,"h":14},
	"rotated": false,
	"trimmed": false,
	"spriteSourceSize": {"x":0,"y":0,"w":30,"h":14},
	"sourceSize": {"w":30,"h":14}
},
{
	"filename": "brick_4_2.png",
	"frame": {"x":75,"y":0,"w":20,"h":9},
	"rotated": false,
	"trimmed": false,
	"spriteSourceSize": {"x":0,"y":0,"w":20,"h":9},
	"sourceSize": {"w":20,"h":9}
},
{
	"filename": "brick_4_3.png",
	"frame": {"x":65,"y":0,"w":10,"h":5},
	"rotated": false,
	"trimmed": false,
	"spriteSourceSize": {"x":0,"y":0,"w":10,"h":5},
	"sourceSize": {"w":10,"h":5}
},
{
	"filename": "brick_4_4.png",
	"frame": {"x":5,"y":0,"w":5,"h":3},
	"rotated": false,
	"trimmed": false,
	"spriteSourceSize": {"x":0,"y":0,"w":5,"h":3},
	"sourceSize": {"w":5,"h":3}
},
{
	"filename": "brick_5_0.png",
	"frame": {"x":145,"y":32,"w":60,"h":27},
	"rotated": false,
	"trimmed": false,
	"spriteSourceSize": {"x":0,"y":0,"w":60,"h":27},
	"sourceSize": {"w":60,"h":27}
},
{
	"filename": "brick_5_1.png",
	"frame": {"x":0,"y":14,"w":30,"h":14},
	"rotated": false,
	"trimmed": false,
	"spriteSourceSize": {"x":0,"y":0,"w":30,"h":14},
	"sourceSize": {"w":30,"h":14}
},
{
	"filename": "brick_5_2.png",
	"frame": {"x":155,"y":0,"w":20,"h":9},
	"rotated": false,
	"trimmed": false,
	"spriteSourceSize": {"x":0,"y":0,"w":20,"h":9},
	"sourceSize": {"w":20,"h":9}
},
{
	"filename": "brick_5_3.png",
	"frame": {"x":55,"y":0,"w":10,"h":5},
	"rotated": false,
	"trimmed": false,
	"spriteSourceSize": {"x":0,"y":0,"w":10,"h":5},
	"sourceSize": {"w":10,"h":5}
},
{
	"filename": "brick_5_4.png",
	"frame": {"x":15,"y":0,"w":5,"h":3},
	"rotated": false,
	"trimmed": false,
	"spriteSourceSize": {"x":0,"y":0,"w":5,"h":3},
	"sourceSize": {"w":5,"h":3}
},
{
	"filename": "cd_one.png",
	"frame": {"x":120,"y":59,"w":40,"h":60},
	"rotated": false,
	"trimmed": false,
	"spriteSourceSize": {"x":0,"y":0,"w":40,"h":60},
	"sourceSize": {"w":40,"h":60}
},
{
	"filename": "cd_three.png",
	"frame": {"x":200,"y":59,"w":40,"h":60},
	"rotated": false,
	"trimmed": false,
	"spriteSourceSize": {"x":0,"y":0,"w":40,"h":60},
	"sourceSize": {"w":40,"h":60}
},
{
	"filename": "cd_two.png",
	"frame": {"x":160,"y":59,"w":40,"h":60},
	"rotated": false,
	"trimmed": false,
	"spriteSourceSize": {"x":0,"y":0,"w":40,"h":60},
	"sourceSize": {"w":40,"h":60}
},
{
	"filename": "star.png",
	"frame": {"x":0,"y":32,"w":25,"h":25},
	"rotated": false,
	"trimmed": false,
	"spriteSourceSize": {"x":0,"y":0,"w":25,"h":25},
	"sourceSize": {"w":25,"h":25}
}],
"meta": {
	"app": "http://www.codeandweb.com/texturepacker",
	"version": "1.0",
	"image": "texture1.png",
	"format": "RGBA8888",
	"size": {"w":240,"h":119},
	"scale": "1",
	"smartupdate": "$TexturePacker:SmartUpdate:bd1981dfd5e5439a4f0796abcf006c92:c087a7ddc90a3a3e7975f56b0576d610:846f54518580bcc2228f42d9e8610682$"
}
}
