{"frames": [

{
	"filename": "ball.png",
	"frame": {"x":0,"y":40,"w":15,"h":15},
	"rotated": false,
	"trimmed": false,
	"spriteSourceSize": {"x":0,"y":0,"w":15,"h":15},
	"sourceSize": {"w":15,"h":15}
},
{
	"filename": "bat.png",
	"frame": {"x":16,"y":40,"w":80,"h":18},
	"rotated": false,
	"trimmed": false,
	"spriteSourceSize": {"x":0,"y":0,"w":80,"h":18},
	"sourceSize": {"w":80,"h":18}
},
{
	"filename": "bat_mini.png",
	"frame": {"x":0,"y":78,"w":50,"h":18},
	"rotated": false,
	"trimmed": false,
	"spriteSourceSize": {"x":0,"y":0,"w":50,"h":18},
	"sourceSize": {"w":50,"h":18}
},
{
	"filename": "brick_1_0.png",
	"frame": {"x":0,"y":59,"w":40,"h":18},
	"rotated": false,
	"trimmed": false,
	"spriteSourceSize": {"x":0,"y":0,"w":40,"h":18},
	"sourceSize": {"w":40,"h":18}
},
{
	"filename": "brick_1_1.png",
	"frame": {"x":84,"y":10,"w":30,"h":14},
	"rotated": false,
	"trimmed": false,
	"spriteSourceSize": {"x":0,"y":0,"w":30,"h":14},
	"sourceSize": {"w":30,"h":14}
},
{
	"filename": "brick_1_2.png",
	"frame": {"x":42,"y":10,"w":20,"h":9},
	"rotated": false,
	"trimmed": false,
	"spriteSourceSize": {"x":0,"y":0,"w":20,"h":9},
	"sourceSize": {"w":20,"h":9}
},
{
	"filename": "brick_1_3.png",
	"frame": {"x":41,"y":0,"w":10,"h":5},
	"rotated": false,
	"trimmed": false,
	"spriteSourceSize": {"x":0,"y":0,"w":10,"h":5},
	"sourceSize": {"w":10,"h":5}
},
{
	"filename": "brick_1_4.png",
	"frame": {"x":12,"y":0,"w":5,"h":3},
	"rotated": false,
	"trimmed": false,
	"spriteSourceSize": {"x":0,"y":0,"w":5,"h":3},
	"sourceSize": {"w":5,"h":3}
},
{
	"filename": "brick_2_0.png",
	"frame": {"x":41,"y":59,"w":40,"h":18},
	"rotated": false,
	"trimmed": false,
	"spriteSourceSize": {"x":0,"y":0,"w":40,"h":18},
	"sourceSize": {"w":40,"h":18}
},
{
	"filename": "brick_2_1.png",
	"frame": {"x":0,"y":25,"w":30,"h":14},
	"rotated": false,
	"trimmed": false,
	"spriteSourceSize": {"x":0,"y":0,"w":30,"h":14},
	"sourceSize": {"w":30,"h":14}
},
{
	"filename": "brick_2_2.png",
	"frame": {"x":21,"y":10,"w":20,"h":9},
	"rotated": false,
	"trimmed": false,
	"spriteSourceSize": {"x":0,"y":0,"w":20,"h":9},
	"sourceSize": {"w":20,"h":9}
},
{
	"filename": "brick_2_3.png",
	"frame": {"x":30,"y":0,"w":10,"h":5},
	"rotated": false,
	"trimmed": false,
	"spriteSourceSize": {"x":0,"y":0,"w":10,"h":5},
	"sourceSize": {"w":10,"h":5}
},
{
	"filename": "brick_2_4.png",
	"frame": {"x":24,"y":0,"w":5,"h":3},
	"rotated": false,
	"trimmed": false,
	"spriteSourceSize": {"x":0,"y":0,"w":5,"h":3},
	"sourceSize": {"w":5,"h":3}
},
{
	"filename": "brick_3_0.png",
	"frame": {"x":41,"y":97,"w":40,"h":18},
	"rotated": false,
	"trimmed": false,
	"spriteSourceSize": {"x":0,"y":0,"w":40,"h":18},
	"sourceSize": {"w":40,"h":18}
},
{
	"filename": "brick_3_1.png",
	"frame": {"x":62,"y":25,"w":30,"h":14},
	"rotated": false,
	"trimmed": false,
	"spriteSourceSize": {"x":0,"y":0,"w":30,"h":14},
	"sourceSize": {"w":30,"h":14}
},
{
	"filename": "brick_3_2.png",
	"frame": {"x":0,"y":10,"w":20,"h":9},
	"rotated": false,
	"trimmed": false,
	"spriteSourceSize": {"x":0,"y":0,"w":20,"h":9},
	"sourceSize": {"w":20,"h":9}
},
{
	"filename": "brick_3_3.png",
	"frame": {"x":52,"y":0,"w":10,"h":5},
	"rotated": false,
	"trimmed": false,
	"spriteSourceSize": {"x":0,"y":0,"w":10,"h":5},
	"sourceSize": {"w":10,"h":5}
},
{
	"filename": "brick_3_4.png",
	"frame": {"x":0,"y":0,"w":5,"h":3},
	"rotated": false,
	"trimmed": false,
	"spriteSourceSize": {"x":0,"y":0,"w":5,"h":3},
	"sourceSize": {"w":5,"h":3}
},
{
	"filename": "brick_4_0.png",
	"frame": {"x":51,"y":78,"w":40,"h":18},
	"rotated": false,
	"trimmed": false,
	"spriteSourceSize": {"x":0,"y":0,"w":40,"h":18},
	"sourceSize": {"w":40,"h":18}
},
{
	"filename": "brick_4_1.png",
	"frame": {"x":93,"y":25,"w":30,"h":14},
	"rotated": false,
	"trimmed": false,
	"spriteSourceSize": {"x":0,"y":0,"w":30,"h":14},
	"sourceSize": {"w":30,"h":14}
},
{
	"filename": "brick_4_2.png",
	"frame": {"x":85,"y":0,"w":20,"h":9},
	"rotated": false,
	"trimmed": false,
	"spriteSourceSize": {"x":0,"y":0,"w":20,"h":9},
	"sourceSize": {"w":20,"h":9}
},
{
	"filename": "brick_4_3.png",
	"frame": {"x":74,"y":0,"w":10,"h":5},
	"rotated": false,
	"trimmed": false,
	"spriteSourceSize": {"x":0,"y":0,"w":10,"h":5},
	"sourceSize": {"w":10,"h":5}
},
{
	"filename": "brick_4_4.png",
	"frame": {"x":6,"y":0,"w":5,"h":3},
	"rotated": false,
	"trimmed": false,
	"spriteSourceSize": {"x":0,"y":0,"w":5,"h":3},
	"sourceSize": {"w":5,"h":3}
},
{
	"filename": "brick_5_0.png",
	"frame": {"x":0,"y":97,"w":40,"h":18},
	"rotated": false,
	"trimmed": false,
	"spriteSourceSize": {"x":0,"y":0,"w":40,"h":18},
	"sourceSize": {"w":40,"h":18}
},
{
	"filename": "brick_5_1.png",
	"frame": {"x":31,"y":25,"w":30,"h":14},
	"rotated": false,
	"trimmed": false,
	"spriteSourceSize": {"x":0,"y":0,"w":30,"h":14},
	"sourceSize": {"w":30,"h":14}
},
{
	"filename": "brick_5_2.png",
	"frame": {"x":63,"y":10,"w":20,"h":9},
	"rotated": false,
	"trimmed": false,
	"spriteSourceSize": {"x":0,"y":0,"w":20,"h":9},
	"sourceSize": {"w":20,"h":9}
},
{
	"filename": "brick_5_3.png",
	"frame": {"x":63,"y":0,"w":10,"h":5},
	"rotated": false,
	"trimmed": false,
	"spriteSourceSize": {"x":0,"y":0,"w":10,"h":5},
	"sourceSize": {"w":10,"h":5}
},
{
	"filename": "brick_5_4.png",
	"frame": {"x":18,"y":0,"w":5,"h":3},
	"rotated": false,
	"trimmed": false,
	"spriteSourceSize": {"x":0,"y":0,"w":5,"h":3},
	"sourceSize": {"w":5,"h":3}
},
{
	"filename": "cd_one.png",
	"frame": {"x":82,"y":123,"w":40,"h":60},
	"rotated": false,
	"trimmed": false,
	"spriteSourceSize": {"x":0,"y":0,"w":40,"h":60},
	"sourceSize": {"w":40,"h":60}
},
{
	"filename": "cd_three.png",
	"frame": {"x":0,"y":123,"w":40,"h":60},
	"rotated": false,
	"trimmed": false,
	"spriteSourceSize": {"x":0,"y":0,"w":40,"h":60},
	"sourceSize": {"w":40,"h":60}
},
{
	"filename": "cd_two.png",
	"frame": {"x":41,"y":123,"w":40,"h":60},
	"rotated": false,
	"trimmed": false,
	"spriteSourceSize": {"x":0,"y":0,"w":40,"h":60},
	"sourceSize": {"w":40,"h":60}
},
{
	"filename": "star.png",
	"frame": {"x":82,"y":97,"w":25,"h":25},
	"rotated": false,
	"trimmed": false,
	"spriteSourceSize": {"x":0,"y":0,"w":25,"h":25},
	"sourceSize": {"w":25,"h":25}
}],
"meta": {
	"app": "http://www.codeandweb.com/texturepacker",
	"version": "1.0",
	"image": "texture.png",
	"format": "RGBA8888",
	"size": {"w":123,"h":183},
	"scale": "1",
	"smartupdate": "$TexturePacker:SmartUpdate:948669263899c20e5a840ffa79e46f6d:8836068f508136fa02ed1f5246ba2fda:88db1022cd6b660616541d2788fcd4f7$"
}
}
